phone,password,email,name
12767739,zaful,https://au.zaful.com/,Get
12821694,zaful,https://au.zaful.com/,Avail
12821693,zaful,https://au.zaful.com/,Get
12821695,zaful,https://au.zaful.com/,Avail
12821696,zaful,https://au.zaful.com/,Avail
